{
  "type": "service_account",
  "project_id": "buoyant-episode-384706",
  "private_key_id": "0a165e9eb7856fa445c79b0b0bf0245fcccf01a1",
  "private_key": "-----BEGIN PRIVATE KEY-----\nMIIEvgIBADANBgkqhkiG9w0BAQEFAASCBKgwggSkAgEAAoIBAQC1RuKDSIdH5Zcb\nfskjALmYnFH7JXnRSCkibzLuCNRUkdmE1mSmoM5vA2eEW41qJdB6P7kA+m5STNYl\ndfyvSVmvH2TOG3OOppzX4Fmf2bozTcFiykOg7kdyXrhy7kXsgIJcIxrt8Upp7cBA\npMGmyeyySXNCjd3wM68cMvvU0KCt7RPRz3rKkEIy5YsbyJIZDwdPFmbVs9WdeU/7\nl/NNsK3bRWsV9QFytqz3ympk3ToU6PQQaBZdci1jbJUMESlbJeFpFBDDqEAXLe81\nLx1gvuC419DXCei5i9hw+QTiee+FXEw3u2KzbfTMs60/SgoB04diAWhyO0F2Mzdn\nEpBe+yKLAgMBAAECggEANArwtt4YsIRyeFtS5XCs1+pxAthEe9fqr08bYQk55Dmn\nKCLg7JGYEnj4vCAInmPS0XX/6A79ozUZ+dFAxRYa4FLz/tQUveyJdNSdBm5craPy\nFCmbdtVRv7z/2Ucc3gQa6NbPQWaXhYfTPPvP+NFZ2emKZJ4UDITaDg95CyUGLEg6\nwopXrNPZEBtfPYi45YidW9DH0hL9/0LzSJ6k0JH2fwbeGubpq3ojIyKUvhZNqB5e\nj3RWBB99LKgg0uP5oE/dNqg2LLjIpydKCWiPmGcfvnh3Uj4ur4qEE90PyYTHH0G1\nnZkVR2QUriPyqseQa6esUOKD25H4+M5L0hiWnn06eQKBgQDsSoHbtPJRbMlmQ8ww\nCdAdJ4pbiNpcy72j8AnzSfkVagUu1z86Ln9JhdBAQDHhy442oLTwZ99SED72Oamw\nSJSgZVUT5J+3TpiEClLemBZN5k2zWxuUmY0XS4g+qp/C8q3HRncpEm9SbFa45A5M\nQaKQdA4bLtQdF9GEEt1L8PlXDQKBgQDEZarZElSsPX+ExLhVL0SJFQ3rgSrx17h0\nHbTQAlGaTntyk9f2gHQXPzrkDH2TxFcZEAlIUnu44r8QUwMsw+dKzdGr3GvonNO3\n+nR/iTr5T0AyGfWwxetpZRoUn2Mxbg5j3JbX6qPTZXvsvZpQoFaEmlfCdzQxdfiZ\nE8p59I959wKBgQC+7VlOiUA/kPKPonqr2lICLL/8RHGFB8/dVokDv6L3raowdhaN\n0aJiazChqf1kYJEyDNsHYjct3Riy5lb5rTwC+r4rC9IOUQCluJ3LZQKowU3JffWk\nNgquZwbY9A+Re3v1iDeixVWUORw923C+J07PACehyU31kBhoasHLqhQfRQKBgA/R\nGEdPIJ6WfVSV+zpxChX4KhzTVEAR3XsMgWlXJndE5tA9c+EYS0EsCHQhRWPHJjSQ\nhA7dBbXIHRcVeGX8iP4PQVmT8OTU7IAenY8/4A4AAe2HBbBs4B6m08jhZT2v3VzR\ngRx2eyclPyu7wVfI8e7P901kCEILfC/n1iCoP33VAoGBALzKsI1IqIpc9E7jaVYI\n7W9cABm14QI26Kysc1H/T2RBNg0Nt7DEj8pJ/0XB3zeFYjAUjy5vW434edr4tHxQ\n3VD/YYr8y3nF+HYHf+sZoIA4nDmbJICuVQZqkFyptDJyqgsuGVjCHGl9BZouwn/R\nojtAGiAs3MmJ1XiKNfBI34Su\n-----END PRIVATE KEY-----\n",
  "client_email": "bouchra@buoyant-episode-384706.iam.gserviceaccount.com",
  "client_id": "103246406921753634759",
  "auth_uri": "https://accounts.google.com/o/oauth2/auth",
  "token_uri": "https://oauth2.googleapis.com/token",
  "auth_provider_x509_cert_url": "https://www.googleapis.com/oauth2/v1/certs",
  "client_x509_cert_url": "https://www.googleapis.com/robot/v1/metadata/x509/bouchra%40buoyant-episode-384706.iam.gserviceaccount.com"
}
